<svg width="29" height="29" viewBox="0 0 29 29" fill="none" xmlns="http://www.w3.org/2000/svg">
<path d="M11.1306 25.6021C17.2655 27.2459 23.5705 23.6085 25.2132 17.4776C26.856 11.3468 23.2144 5.04418 17.0795 3.40035C10.9447 1.75652 4.63966 5.39396 2.99691 11.5248C1.35416 17.6556 4.99573 23.9582 11.1306 25.6021Z" fill="#F36363" fill-opacity="0.89"/>
<path d="M11.6322 20.1661L7.47651 14.6671L9.48339 13.1508L12.0353 16.5275L19.4163 10.2728L21.043 12.1917L11.6322 20.1661Z" fill="white"/>
</svg>
