<svg width="238" height="237" viewBox="0 0 238 237" fill="none" xmlns="http://www.w3.org/2000/svg">
<g clip-path="url(#clip0)">
<path d="M237.5 181.258H0.5V181.376H237.5V181.258Z" fill="#EBEBEB"/>
<path d="M213.753 188.884H198.054V189.003H213.753V188.884Z" fill="#EBEBEB"/>
<path d="M157.498 190.174H153.379V190.292H157.498V190.174Z" fill="#EBEBEB"/>
<path d="M197.579 184.486H188.483V184.604H197.579V184.486Z" fill="#EBEBEB"/>
<path d="M45.8383 185.282H25.3662V185.4H45.8383V185.282Z" fill="#EBEBEB"/>
<path d="M53.0619 185.282H50.0615V185.4H53.0619V185.282Z" fill="#EBEBEB"/>
<path d="M107.221 187.282H62.8164V187.401H107.221V187.282Z" fill="#EBEBEB"/>
<path d="M112.838 160.117H21.3131C20.5961 160.116 19.9089 159.83 19.4024 159.323C18.8958 158.815 18.6113 158.128 18.6113 157.411V28.7528C18.6176 28.04 18.9048 27.3583 19.4107 26.856C19.9166 26.3537 20.6002 26.0712 21.3131 26.07H112.838C113.556 26.07 114.244 26.3552 114.752 26.8627C115.259 27.3703 115.544 28.0587 115.544 28.7765V157.411C115.544 158.128 115.259 158.817 114.752 159.324C114.244 159.832 113.556 160.117 112.838 160.117ZM21.3131 26.1648C20.6276 26.1661 19.9705 26.4393 19.4862 26.9245C19.0018 27.4097 18.7298 28.0673 18.7298 28.7528V157.411C18.7298 158.096 19.0018 158.754 19.4862 159.239C19.9705 159.724 20.6276 159.997 21.3131 159.999H112.838C113.524 159.997 114.181 159.724 114.666 159.239C115.152 158.754 115.425 158.097 115.426 157.411V28.7528C115.425 28.0668 115.152 27.4093 114.666 26.9242C114.181 26.4391 113.524 26.1661 112.838 26.1648H21.3131Z" fill="#EBEBEB"/>
<path d="M215.369 160.117H123.839C123.122 160.116 122.434 159.83 121.927 159.323C121.42 158.816 121.134 158.128 121.133 157.411V28.7528C121.14 28.0395 121.429 27.3579 121.935 26.8557C122.442 26.3535 123.126 26.0712 123.839 26.07H215.369C216.081 26.0725 216.763 26.3555 217.268 26.8577C217.773 27.3599 218.06 28.0408 218.066 28.7528V157.411C218.066 158.127 217.782 158.814 217.276 159.321C216.771 159.828 216.085 160.115 215.369 160.117ZM123.839 26.1648C123.153 26.1661 122.496 26.4391 122.011 26.9242C121.526 27.4093 121.253 28.0668 121.251 28.7528V157.411C121.253 158.097 121.526 158.754 122.011 159.239C122.496 159.724 123.153 159.997 123.839 159.999H215.369C216.055 159.997 216.712 159.724 217.197 159.239C217.682 158.754 217.956 158.097 217.957 157.411V28.7528C217.956 28.0668 217.682 27.4093 217.197 26.9242C216.712 26.4391 216.055 26.1661 215.369 26.1648H123.839Z" fill="#EBEBEB"/>
<path d="M53.2988 181.258L53.2988 114.191H31.7935L31.7935 181.258H53.2988Z" fill="#F0F0F0"/>
<path d="M52.1182 135.616V115.874H32.9733V135.616H52.1182Z" fill="#E6E6E6"/>
<path d="M52.1182 157.131V137.389H32.9733V157.131H52.1182Z" fill="#E6E6E6"/>
<path d="M52.1143 178.646V158.904H32.9694V178.646H52.1143Z" fill="#E6E6E6"/>
<path d="M52.1182 135.616V115.874H44.5863V135.616H52.1182Z" fill="#E0E0E0"/>
<path d="M52.1182 157.131V137.389H44.5863V157.131H52.1182Z" fill="#E0E0E0"/>
<path d="M49.2462 127.729H44.0322V135.616H49.2462V127.729Z" fill="#F0F0F0"/>
<path d="M41.8232 135.616H44.0273V127.729H41.8232V135.616Z" fill="#E0E0E0"/>
<path d="M42.9281 129.781H36.2305V135.616H42.9281V129.781Z" fill="#F0F0F0"/>
<path d="M33.4007 135.616H36.2305V129.781H33.4007V135.616Z" fill="#E0E0E0"/>
<path d="M52.1143 178.641V158.899H44.5824V178.641H52.1143Z" fill="#E0E0E0"/>
<path d="M31.7939 181.258L31.7939 114.191H25.9543L25.9543 181.258H31.7939Z" fill="#F5F5F5"/>
<path d="M49.9759 167.071H35.7559V178.646H49.9759V167.071Z" fill="#F0F0F0"/>
<path d="M32.9735 178.641H35.7559V167.066H32.9735V178.641Z" fill="#E0E0E0"/>
<path d="M47.4786 147.945H34.8418V157.131H47.4786V147.945Z" fill="#FAFAFA"/>
<path d="M32.9781 157.131H34.8457V147.945H32.9781V157.131Z" fill="#F0F0F0"/>
<path d="M212.099 181.258V114.191H190.593V181.258H212.099Z" fill="#F0F0F0"/>
<path d="M210.913 135.616V115.874H191.768V135.616H210.913Z" fill="#E6E6E6"/>
<path d="M210.913 157.131V137.389H191.768V157.131H210.913Z" fill="#E6E6E6"/>
<path d="M210.913 178.646V158.904H191.768V178.646H210.913Z" fill="#E6E6E6"/>
<path d="M210.913 135.616V115.874H203.381V135.616H210.913Z" fill="#E0E0E0"/>
<path d="M210.913 157.131V137.389H203.381V157.131H210.913Z" fill="#E0E0E0"/>
<path d="M200.012 151.396H194.798V157.126H200.012V151.396Z" fill="#F0F0F0"/>
<path d="M192.594 157.131H194.798V151.4H192.594V157.131Z" fill="#E0E0E0"/>
<path d="M204.733 145.665H199.519V151.396H204.733V145.665Z" fill="#F0F0F0"/>
<path d="M197.314 151.4H199.519V145.67H197.314V151.4Z" fill="#E0E0E0"/>
<path d="M208.439 151.396H203.225V157.126H208.439V151.396Z" fill="#F0F0F0"/>
<path d="M201.021 157.131H203.225V151.4H201.021V157.131Z" fill="#E0E0E0"/>
<path d="M210.913 178.646V158.904H203.381V178.646H210.913Z" fill="#E0E0E0"/>
<path d="M190.593 181.258V114.191H184.753V181.258H190.593Z" fill="#F5F5F5"/>
<path d="M205.832 162.971H194.072V178.646H205.832V162.971Z" fill="#F0F0F0"/>
<path d="M191.773 178.641H194.072V162.966H191.773V178.641Z" fill="#E0E0E0"/>
<path d="M209.615 123.174H194.072V135.616H209.615V123.174Z" fill="#FAFAFA"/>
<path d="M191.773 135.616H194.072V123.174H191.773V135.616Z" fill="#F0F0F0"/>
<path d="M172.221 38.6689H62.4658V110.76H172.221V38.6689Z" fill="#E6E6E6"/>
<path d="M173.704 38.6689H63.9492V110.76H173.704V38.6689Z" fill="#F5F5F5"/>
<path d="M171.045 107.773V41.6552L66.6038 41.6552V107.773H171.045Z" fill="white"/>
<path d="M171.045 107.773V41.6552H169.926V107.773H171.045Z" fill="#E6E6E6"/>
<path d="M172.605 87.0596H65.0498V91.0696H172.605V87.0596Z" fill="#F5F5F5"/>
<path d="M176.605 33.7251H59.5696C59.5157 33.7245 59.4622 33.7346 59.4122 33.7548C59.3621 33.775 59.3167 33.8049 59.2783 33.8428C59.2399 33.8807 59.2095 33.9259 59.1887 33.9757C59.1679 34.0254 59.1572 34.0788 59.1572 34.1328C59.1585 34.2413 59.2025 34.345 59.2797 34.4213C59.3569 34.4976 59.4611 34.5404 59.5696 34.5404H176.605C176.713 34.5392 176.816 34.4958 176.892 34.4196C176.968 34.3435 177.011 34.2405 177.013 34.1328C177.013 34.0247 176.97 33.921 176.893 33.8445C176.817 33.7681 176.713 33.7251 176.605 33.7251Z" fill="#E6E6E6"/>
<path d="M178.037 34.128C178.037 34.3305 177.977 34.5285 177.864 34.6968C177.752 34.8652 177.592 34.9964 177.405 35.0739C177.218 35.1514 177.012 35.1717 176.813 35.1322C176.615 35.0927 176.432 34.9952 176.289 34.852C176.146 34.7088 176.048 34.5264 176.009 34.3278C175.969 34.1292 175.99 33.9233 176.067 33.7362C176.145 33.5491 176.276 33.3892 176.444 33.2767C176.613 33.1642 176.811 33.1042 177.013 33.1042C177.148 33.1042 177.281 33.1307 177.405 33.1821C177.529 33.2336 177.642 33.309 177.737 33.4041C177.832 33.4991 177.908 33.612 177.959 33.7362C178.01 33.8604 178.037 33.9936 178.037 34.128Z" fill="#E6E6E6"/>
<path d="M63.0204 36.4269C62.8737 36.4257 62.7334 36.3668 62.6296 36.2631C62.5259 36.1594 62.4671 36.019 62.4658 35.8723V34.6826C62.4658 34.5355 62.5242 34.3944 62.6283 34.2904C62.7323 34.1864 62.8733 34.128 63.0204 34.128C63.1662 34.128 63.3061 34.1859 63.4092 34.289C63.5123 34.3922 63.5702 34.532 63.5702 34.6778V35.8676C63.5709 35.9404 63.5571 36.0126 63.5298 36.0802C63.5026 36.1477 63.4622 36.2092 63.4112 36.2611C63.3601 36.3131 63.2993 36.3544 63.2323 36.3829C63.1652 36.4113 63.0932 36.4263 63.0204 36.4269Z" fill="#E6E6E6"/>
<path d="M170.429 36.4269C170.283 36.4256 170.143 36.3667 170.04 36.2628C169.937 36.1589 169.879 36.0186 169.879 35.8723V34.6826C169.878 34.61 169.892 34.538 169.919 34.4707C169.947 34.4034 169.987 34.3423 170.038 34.2907C170.089 34.2391 170.15 34.1982 170.217 34.1703C170.284 34.1424 170.356 34.128 170.429 34.128C170.575 34.128 170.715 34.1858 170.819 34.2887C170.923 34.3917 170.982 34.5316 170.983 34.6778V35.8676C170.983 36.0151 170.925 36.1566 170.821 36.2614C170.717 36.3662 170.576 36.4256 170.429 36.4269Z" fill="#E6E6E6"/>
<path opacity="0.4" d="M176.473 34.1328H65.0498V104.967H176.473V34.1328Z" fill="#E0E0E0"/>
<path d="M70.6239 34.128C70.6239 34.3307 70.5637 34.5289 70.451 34.6973C70.3383 34.8658 70.1781 34.997 69.9907 35.0744C69.8034 35.1517 69.5973 35.1717 69.3985 35.1318C69.1998 35.092 69.0174 34.994 68.8744 34.8503C68.7314 34.7066 68.6342 34.5238 68.5953 34.3249C68.5563 34.1259 68.5773 33.9199 68.6555 33.7329C68.7337 33.5459 68.8657 33.3864 69.0347 33.2744C69.2036 33.1625 69.4021 33.1033 69.6048 33.1042C69.8755 33.1055 70.1347 33.2139 70.3257 33.4057C70.5167 33.5976 70.6239 33.8573 70.6239 34.128Z" fill="#E6E6E6"/>
<path d="M77.7479 142.911H178.383V138.778H77.7479V142.911Z" fill="#F0F0F0"/>
<path d="M77.7474 138.778H65.8311V142.911H77.7474V138.778Z" fill="#E6E6E6"/>
<path d="M176.729 142.911H67.6709V145.309H176.729V142.911Z" fill="#E0E0E0"/>
<path d="M175.558 144.783V181.258H176.728V144.783H175.558Z" fill="#E0E0E0"/>
<path d="M77.748 144.783V181.258H78.9188V144.783H77.748Z" fill="#E0E0E0"/>
<path d="M67.6709 144.783V181.258H68.8369V144.783H67.6709Z" fill="#E0E0E0"/>
<path d="M165.485 144.783V181.258H166.656V144.783H165.485Z" fill="#E0E0E0"/>
<path d="M142.629 100.858L146.672 108.072C146.549 123.648 147.933 124.548 147.948 127.226H143.682C143.279 114.182 140.757 115.291 142.629 100.858Z" fill="#E0E0E0"/>
<path d="M145.747 119.747C144.325 104.726 120.663 107.129 118.417 114.187C116.17 121.244 146.572 128.388 145.747 119.747Z" fill="#E0E0E0"/>
<path d="M143.961 113.651C147.085 102.569 132.85 100.479 126.494 103.697C122.749 107.446 142.164 120.026 143.961 113.651Z" fill="#E0E0E0"/>
<path d="M140.041 106.65C147.369 104.28 142.624 96.5822 138.249 94.6104C134.642 94.1269 135.827 108.039 140.041 106.65Z" fill="#E0E0E0"/>
<path d="M148.094 113.959C139.804 107.683 149.857 101.659 156.526 101.687C161.447 102.943 152.862 117.552 148.094 113.959Z" fill="#E0E0E0"/>
<path d="M146.605 107.645C135.556 104.858 142.164 96.9851 148.558 95.0891C153.877 94.7052 152.957 109.252 146.605 107.645Z" fill="#E0E0E0"/>
<path d="M144.596 120.657C142.534 107.105 164.774 107.754 166.575 113.13C168.376 118.505 145.757 128.454 144.596 120.657Z" fill="#E0E0E0"/>
<path d="M143.411 138.778C135.353 138.778 128.57 138.422 126.921 130.786C126.521 128.76 125.945 126.773 125.2 124.847L125.072 124.539H161.746L161.618 124.847C160.872 126.772 160.298 128.76 159.902 130.786C158.248 138.408 151.46 138.778 143.411 138.778Z" fill="#FAFAFA"/>
<path d="M164.12 125.236H122.697L121.512 121.78H165.305L164.12 125.236Z" fill="#F0F0F0"/>
<path d="M119 202.663C169.757 202.663 210.903 200.261 210.903 197.298C210.903 194.334 169.757 191.932 119 191.932C68.2425 191.932 27.0957 194.334 27.0957 197.298C27.0957 200.261 68.2425 202.663 119 202.663Z" fill="#F5F5F5"/>
<path d="M180.857 193.397L177.055 193.34L177.041 184.514L180.838 184.571L180.857 193.397Z" fill="#FFB573"/>
<path d="M200.158 193.411H196.352L195.224 184.599H199.03L200.158 193.411Z" fill="#FFB573"/>
<path d="M195.954 192.97H200.594C200.668 192.97 200.741 192.996 200.798 193.044C200.855 193.091 200.894 193.158 200.907 193.231L201.514 196.615C201.527 196.699 201.521 196.785 201.498 196.866C201.475 196.948 201.434 197.023 201.378 197.087C201.323 197.151 201.254 197.202 201.177 197.237C201.099 197.272 201.015 197.289 200.931 197.288C199.437 197.265 198.352 197.175 196.47 197.175C195.314 197.175 191.825 197.298 190.228 197.298C188.63 197.298 188.488 195.719 189.147 195.572C192.105 194.933 194.361 194.051 195.309 193.202C195.487 193.047 195.717 192.965 195.954 192.97Z" fill="#263238"/>
<path d="M176.871 192.918L181.023 192.984C181.097 192.984 181.169 193.011 181.225 193.059C181.281 193.108 181.317 193.176 181.326 193.25L181.848 196.639C181.859 196.723 181.853 196.809 181.828 196.89C181.804 196.971 181.762 197.046 181.705 197.11C181.649 197.173 181.58 197.224 181.502 197.258C181.424 197.292 181.34 197.309 181.255 197.307C179.757 197.26 177.601 197.137 175.719 197.108C173.52 197.075 173.273 197.165 170.695 197.108C169.135 197.084 168.799 195.501 169.472 195.369C172.491 194.762 173.264 194.729 175.937 193.183C176.219 193.013 176.541 192.922 176.871 192.918Z" fill="#263238"/>
<path d="M178.558 80.1676C177.537 82.912 176.374 85.6017 175.074 88.2256C174.425 89.5339 173.743 90.8374 172.994 92.1172C172.251 93.4244 171.437 94.6902 170.557 95.9092L169.841 96.8572C169.401 97.4185 168.851 97.8845 168.225 98.227C167.572 98.58 166.844 98.7718 166.102 98.7863C165.494 98.8052 164.887 98.7251 164.305 98.5493C163.398 98.2744 162.54 97.8602 161.76 97.3217C161.095 96.8626 160.461 96.359 159.864 95.8144C157.67 93.7605 155.757 91.4256 154.176 88.8703L156.432 87.1117C157.404 88.0597 158.428 89.0077 159.461 89.8989C160.458 90.7824 161.508 91.6055 162.603 92.3636C163.103 92.7162 163.628 93.033 164.172 93.3116C164.595 93.5349 165.049 93.6946 165.519 93.7856C165.619 93.8147 165.726 93.8147 165.827 93.7856C165.86 93.7619 165.794 93.7572 165.737 93.7856C165.68 93.8141 165.666 93.7856 165.699 93.7477L166.196 92.9561C167.579 90.6306 168.821 88.2247 169.917 85.7514C171.06 83.2534 172.159 80.6511 173.178 78.1389L178.558 80.1676Z" fill="#FFB573"/>
<path d="M179.98 77.6839C181.236 81.0967 174.647 91.065 174.647 91.065L167.063 86.8653C168.232 83.757 169.732 80.7836 171.538 77.9968C174.283 74.0104 178.61 73.9441 179.98 77.6839Z" fill="#407BFF"/>
<path opacity="0.5" d="M179.98 77.6839C181.236 81.0967 174.647 91.065 174.647 91.065L167.063 86.8653C168.232 83.757 169.732 80.7836 171.538 77.9968C174.283 74.0104 178.61 73.9441 179.98 77.6839Z" fill="white"/>
<path opacity="0.2" d="M175.776 81.4237C174.325 82.1584 171.036 85.7703 170.045 88.51L174.647 91.0649C176.22 88.6429 177.611 86.108 178.809 83.4809C177.776 82.476 176.543 81.054 175.776 81.4237Z" fill="#407BFF"/>
<path d="M156.678 87.1734L154.365 85.0783L152.18 88.8182C152.18 88.8182 154.403 91.4252 156.863 90.1596L157.195 89.2116C157.319 88.8588 157.337 88.477 157.245 88.1143C157.153 87.7516 156.956 87.4242 156.678 87.1734Z" fill="#FFB573"/>
<path d="M150.63 83.5046L149.99 87.1402L152.18 88.8181L154.365 85.0783L150.63 83.5046Z" fill="#FFB573"/>
<path opacity="0.2" d="M177.041 184.514L177.05 189.064L180.847 189.126L180.842 184.576L177.041 184.514Z" fill="black"/>
<path opacity="0.2" d="M199.03 184.604H195.224L195.811 189.145H199.613L199.03 184.604Z" fill="black"/>
<path d="M196.807 75.0343C193.66 89.7283 195.485 104.977 195.319 108.101L174.97 107.92C170.898 86.4861 175.491 75.0343 175.491 75.0343C175.491 75.0343 176.776 74.6977 178.534 74.3991C179.084 74.3043 179.681 74.2143 180.302 74.1432C180.644 74.1005 180.994 74.0673 181.35 74.0341C184.233 73.8964 187.121 73.9233 190 74.1147C190.545 74.1432 191.1 74.1906 191.636 74.2427C192.171 74.2948 192.626 74.3517 193.086 74.4133C195.181 74.6883 196.807 75.0343 196.807 75.0343Z" fill="#407BFF"/>
<path opacity="0.5" d="M196.807 75.0343C193.66 89.7283 195.485 104.977 195.319 108.101L174.97 107.92C170.898 86.4861 175.491 75.0343 175.491 75.0343C175.491 75.0343 176.776 74.6977 178.534 74.3991C179.084 74.3043 179.681 74.2143 180.302 74.1432C180.644 74.1005 180.994 74.0673 181.35 74.0341C184.233 73.8964 187.121 73.9233 190 74.1147C190.545 74.1432 191.1 74.1906 191.636 74.2427C192.171 74.2948 192.626 74.3517 193.086 74.4133C195.181 74.6883 196.807 75.0343 196.807 75.0343Z" fill="white"/>
<path opacity="0.2" d="M192.892 81.528C192.617 82.95 193.451 89.2874 195.01 90.7615C195.072 88.7091 195.2 86.5666 195.409 84.3673L192.892 81.528Z" fill="black"/>
<path d="M189.228 64.3644C188.659 67.1421 188.066 72.2376 190 74.1146C188.474 75.603 186.478 77.3236 183.175 77.4089C179.871 77.4942 180.463 75.2285 181.35 74.034C184.459 73.323 184.402 71.0194 183.881 68.8532L189.228 64.3644Z" fill="#FFB573"/>
<path d="M189.436 73.0482C189.436 73.0482 188.431 75.6836 183.042 77.409C183.912 77.8171 184.618 78.5069 185.047 79.3666C185.047 79.3666 191.346 77.7645 190.868 73.7781C190.425 73.4717 189.944 73.2261 189.436 73.0482Z" fill="white"/>
<path d="M180.985 79.158C181.459 78.3672 182.183 77.7567 183.043 77.4232C182.436 76.8686 181.455 75.1385 181.886 73.7923C181.459 73.7809 181.033 73.832 180.62 73.944C180.62 73.944 178.369 76.096 180.985 79.158Z" fill="white"/>
<path d="M182.891 80.4757C182.848 80.8549 182.654 81.1393 182.45 81.1156C182.246 81.0919 182.118 80.7743 182.156 80.3951C182.194 80.0159 182.398 79.7363 182.597 79.7552C182.796 79.7742 182.933 80.106 182.891 80.4757Z" fill="white"/>
<path d="M182.516 84.372C182.516 84.7512 182.336 85.0545 182.132 85.0498C181.928 85.045 181.767 84.737 181.777 84.3578C181.786 83.9785 181.957 83.6752 182.161 83.6799C182.365 83.6847 182.516 83.9975 182.516 84.372Z" fill="white"/>
<path opacity="0.2" d="M187.047 66.1941L183.881 68.8485C184.01 69.3535 184.094 69.869 184.132 70.389C185.322 70.2278 186.976 68.9386 187.099 67.6967C187.173 67.1968 187.155 66.6877 187.047 66.1941Z" fill="black"/>
<path d="M183.606 58.0271C182.979 58.6749 182.514 59.4616 182.249 60.3232C181.984 61.1848 181.926 62.097 182.08 62.9852C181.203 63.7436 179.615 63.6061 179.615 63.6061L179.113 63.1037C178.873 62.8616 178.689 62.5707 178.572 62.2509C178.455 61.9311 178.408 61.5898 178.435 61.2503C178.525 60.1412 178.776 58.4585 179.478 57.392C180.62 55.6903 183.606 58.0271 183.606 58.0271Z" fill="#263238"/>
<path d="M189.598 60.198C189.333 63.99 189.371 66.1846 187.451 68.0996C184.56 70.9862 179.924 69.2182 179.056 65.4452C178.279 62.0514 178.843 56.4392 182.545 55.0172C183.358 54.69 184.241 54.5759 185.111 54.6856C185.98 54.7953 186.808 55.1252 187.514 55.6441C188.22 56.1629 188.782 56.8536 189.147 57.6505C189.512 58.4474 189.667 59.3243 189.598 60.198Z" fill="#FFB573"/>
<path d="M186.45 57.8944C187.08 59.3034 187.142 60.9006 186.626 62.3547C186.57 62.5017 186.544 62.6584 186.551 62.8155C186.557 62.9725 186.596 63.1266 186.663 63.2684C186.731 63.4103 186.827 63.5368 186.945 63.6405C187.063 63.7442 187.201 63.8228 187.351 63.8715C187.678 63.9691 188.019 64.0154 188.36 64.009L190.176 63.663C190.176 63.663 190.939 60.9612 190.441 58.9846C189.944 57.008 186.45 57.8944 186.45 57.8944Z" fill="#263238"/>
<path d="M186.436 58.3921C183.652 58.644 180.847 58.4988 178.104 57.9608C178.104 57.9608 178.995 55.1168 180.995 54.1688C182.995 53.2208 187.223 53.2824 188.527 53.8322C189.83 54.3821 191.532 56.06 190.897 60.1554C189.546 61.62 186.436 58.3921 186.436 58.3921Z" fill="#263238"/>
<path d="M191.46 59.5487C191.46 59.5487 180.848 58.0082 176.449 57.2356C176.382 57.2234 176.322 57.1882 176.279 57.1363C176.236 57.0843 176.212 57.0188 176.212 56.9512C176.212 56.8835 176.236 56.818 176.279 56.7661C176.322 56.7141 176.382 56.679 176.449 56.6668C178.289 56.4915 180.144 56.5745 181.962 56.9132L191.46 59.5487Z" fill="#407BFF"/>
<path d="M178.179 56.6715C178.368 55.7235 180.008 50.827 186.891 52.3154C193.266 53.69 191.46 59.5486 191.46 59.5486L178.179 56.6715Z" fill="#407BFF"/>
<path d="M182.492 52.4624L184.796 51.7798L187.573 52.0073V52.4861L185.81 52.8937L182.492 52.4624Z" fill="#407BFF"/>
<path opacity="0.2" d="M182.838 57.1644C182.815 57.1651 182.792 57.161 182.77 57.1525C182.748 57.1439 182.728 57.1311 182.711 57.1148C182.694 57.0984 182.681 57.0789 182.672 57.0573C182.663 57.0357 182.658 57.0125 182.658 56.989C182.658 56.9511 182.71 53.1402 187.223 52.1258C187.247 52.1184 187.272 52.1161 187.297 52.1189C187.321 52.1218 187.345 52.1297 187.367 52.1423C187.389 52.1549 187.407 52.1719 187.422 52.1921C187.437 52.2123 187.447 52.2354 187.452 52.2598C187.457 52.2842 187.458 52.3095 187.453 52.3339C187.448 52.3584 187.438 52.3816 187.423 52.402C187.409 52.4223 187.39 52.4395 187.369 52.4523C187.347 52.4652 187.323 52.4734 187.299 52.4766C183.075 53.4246 183.033 56.8421 183.033 56.989C183.033 57.0138 183.028 57.0382 183.018 57.0608C183.008 57.0835 182.993 57.1037 182.975 57.1203C182.956 57.1368 182.935 57.1493 182.911 57.1569C182.888 57.1645 182.863 57.1671 182.838 57.1644Z" fill="black"/>
<path d="M191.209 64.0185C190.725 64.8366 189.938 65.4309 189.019 65.6727C187.801 65.9808 187.223 64.8812 187.597 63.7483C187.924 62.7245 188.958 61.3309 190.171 61.53C191.385 61.7291 191.787 63.0089 191.209 64.0185Z" fill="#FFB573"/>
<path d="M175.881 188.178L182.322 188.278C182.322 188.278 184.067 162.791 183.872 150.936C183.815 147.329 184.209 142.252 184.82 136.801C185.574 129.933 185.972 127.188 186.963 118.505C187.669 112.314 188.385 108.077 188.385 108.077L175.008 107.958C175.008 107.958 173.297 139.005 173.648 150.618C173.985 162.644 175.881 188.178 175.881 188.178Z" fill="#263238"/>
<path opacity="0.2" d="M184.194 116.457C182.194 122.572 183.057 136.536 184.417 140.394C184.531 139.219 184.659 138.024 184.791 136.792C185.545 129.919 185.948 127.174 186.939 118.495C186.939 118.32 186.977 118.154 186.996 117.988C186.159 117.317 185.211 116.799 184.194 116.457Z" fill="black"/>
<path d="M182.189 107.987C182.189 107.987 186.73 139.939 188.351 150.969C190.124 163.047 194.039 188.263 194.039 188.263H201.003C201.003 188.263 199.694 164.497 198.192 152.69C196.485 139.238 195.305 108.105 195.305 108.105L182.189 107.987Z" fill="#263238"/>
<path d="M193.214 188.415H201.419V185.964L192.247 185.808L193.214 188.415Z" fill="#407BFF"/>
<path d="M174.899 188.301L182.559 188.42L182.91 185.941L174.363 185.675L174.899 188.301Z" fill="#407BFF"/>
<path d="M183.872 61.1792C183.872 61.4873 183.706 61.7337 183.502 61.7337C183.298 61.7337 183.142 61.4825 183.147 61.1744C183.151 60.8663 183.312 60.6198 183.516 60.6246C183.72 60.6293 183.877 60.8758 183.872 61.1792Z" fill="#263238"/>
<path d="M180.402 61.1461C180.402 61.4542 180.236 61.7006 180.037 61.6959C179.838 61.6912 179.677 61.4447 179.677 61.1413C179.677 60.838 179.843 60.5867 180.046 60.5867C180.25 60.5867 180.407 60.8427 180.402 61.1461Z" fill="#263238"/>
<path d="M181.402 61.4731C181.027 62.4069 180.525 63.2842 179.909 64.0801C180.118 64.2319 180.357 64.3365 180.61 64.3864C180.863 64.4363 181.123 64.4305 181.374 64.3693L181.402 61.4731Z" fill="#ED893E"/>
<path d="M182.768 65.284C183.11 65.2464 183.441 65.1391 183.74 64.9687C184.039 64.7983 184.3 64.5685 184.507 64.2934C184.516 64.274 184.517 64.2522 184.512 64.2318C184.506 64.2114 184.493 64.1937 184.476 64.1818C184.458 64.1699 184.437 64.1645 184.416 64.1667C184.395 64.169 184.375 64.1785 184.36 64.1938C184.125 64.4961 183.823 64.7393 183.477 64.9039C183.131 65.0685 182.752 65.15 182.369 65.1418C182.345 65.1418 182.323 65.1513 182.306 65.1682C182.289 65.1851 182.279 65.208 182.279 65.2319C182.279 65.2558 182.289 65.2787 182.306 65.2956C182.323 65.3125 182.345 65.3219 182.369 65.3219C182.503 65.3167 182.636 65.304 182.768 65.284Z" fill="#263238"/>
<path d="M184.952 60.07C184.983 60.0653 185.012 60.054 185.038 60.0368C185.076 60.0085 185.101 59.9661 185.108 59.9191C185.115 59.872 185.104 59.824 185.075 59.7856C184.909 59.5517 184.69 59.3608 184.435 59.2289C184.18 59.097 183.898 59.0279 183.611 59.0272C183.587 59.0284 183.564 59.0343 183.543 59.0446C183.522 59.0548 183.503 59.0692 183.488 59.0869C183.472 59.1046 183.46 59.1252 183.453 59.1475C183.446 59.1698 183.443 59.1934 183.445 59.2168C183.446 59.2405 183.452 59.2637 183.462 59.2851C183.472 59.3065 183.487 59.3256 183.504 59.3415C183.522 59.3573 183.543 59.3696 183.565 59.3774C183.587 59.3853 183.611 59.3887 183.635 59.3875C183.861 59.3901 184.084 59.447 184.285 59.5534C184.485 59.6597 184.657 59.8125 184.786 59.9989C184.804 60.0255 184.829 60.0464 184.859 60.059C184.888 60.0716 184.921 60.0755 184.952 60.07Z" fill="#263238"/>
<path d="M178.919 59.9421C178.948 59.9389 178.977 59.9286 179.001 59.9121C179.026 59.8956 179.047 59.8734 179.061 59.8473C179.155 59.6411 179.297 59.4604 179.475 59.3202C179.653 59.1801 179.862 59.0845 180.085 59.0415C180.132 59.0358 180.176 59.0114 180.206 58.9737C180.236 58.9359 180.249 58.8878 180.243 58.84C180.238 58.7923 180.213 58.7487 180.176 58.7189C180.138 58.6891 180.09 58.6756 180.042 58.6813C179.76 58.7313 179.494 58.8488 179.267 59.0237C179.04 59.1987 178.859 59.426 178.739 59.6861C178.727 59.7072 178.72 59.7303 178.718 59.754C178.716 59.7778 178.719 59.8017 178.727 59.8244C178.734 59.847 178.746 59.8678 178.762 59.8856C178.778 59.9034 178.797 59.9178 178.819 59.9279C178.85 59.9417 178.885 59.9466 178.919 59.9421Z" fill="#263238"/>
<path d="M194.67 193.639C195.007 193.629 195.342 193.583 195.67 193.501C195.687 193.496 195.703 193.486 195.716 193.473C195.728 193.459 195.737 193.443 195.741 193.425C195.743 193.408 195.741 193.391 195.735 193.375C195.728 193.359 195.717 193.345 195.703 193.335C195.57 193.25 194.371 192.496 193.945 192.709C193.897 192.734 193.857 192.771 193.828 192.816C193.799 192.86 193.782 192.912 193.779 192.965C193.764 193.052 193.772 193.141 193.801 193.224C193.83 193.307 193.879 193.381 193.945 193.439C194.157 193.586 194.412 193.657 194.67 193.639ZM195.414 193.373C194.76 193.501 194.267 193.477 194.063 193.302C194.019 193.262 193.986 193.211 193.968 193.155C193.95 193.098 193.947 193.038 193.959 192.98C193.957 192.957 193.962 192.935 193.973 192.916C193.984 192.897 194.001 192.881 194.02 192.871C194.243 192.757 194.926 193.084 195.414 193.392V193.373Z" fill="#407BFF"/>
<path d="M195.646 193.501C195.663 193.506 195.681 193.506 195.698 193.501C195.711 193.492 195.722 193.48 195.729 193.466C195.737 193.452 195.741 193.436 195.74 193.42C195.74 193.373 195.693 192.273 195.266 191.913C195.215 191.868 195.155 191.834 195.089 191.815C195.024 191.795 194.955 191.79 194.887 191.799C194.819 191.8 194.754 191.824 194.701 191.866C194.648 191.908 194.61 191.966 194.593 192.032C194.494 192.458 195.219 193.292 195.603 193.506L195.646 193.501ZM194.944 191.97C194.982 191.969 195.019 191.976 195.054 191.99C195.089 192.004 195.121 192.024 195.148 192.051C195.402 192.395 195.542 192.812 195.546 193.24C195.167 192.942 194.712 192.292 194.769 192.065C194.769 192.041 194.769 191.984 194.906 191.97H194.944Z" fill="#407BFF"/>
<path d="M176.463 193.42C176.479 193.414 176.493 193.404 176.504 193.391C176.514 193.377 176.522 193.361 176.524 193.345C176.529 193.327 176.527 193.309 176.519 193.292C176.511 193.276 176.498 193.263 176.482 193.255C176.316 193.16 174.842 192.363 174.363 192.61C174.318 192.634 174.28 192.669 174.251 192.711C174.222 192.753 174.204 192.801 174.197 192.852C174.183 192.931 174.188 193.012 174.212 193.089C174.236 193.166 174.278 193.235 174.335 193.292C174.728 193.667 175.828 193.534 176.449 193.42H176.463ZM174.472 192.757C174.766 192.662 175.572 192.989 176.16 193.288C175.306 193.416 174.685 193.368 174.467 193.16C174.428 193.123 174.399 193.076 174.383 193.025C174.367 192.973 174.365 192.918 174.377 192.866C174.377 192.846 174.383 192.826 174.394 192.809C174.405 192.793 174.421 192.779 174.439 192.771L174.472 192.757Z" fill="#407BFF"/>
<path d="M176.463 193.42C176.476 193.411 176.487 193.399 176.494 193.385C176.501 193.371 176.505 193.356 176.506 193.34C176.506 193.297 176.473 192.269 176.032 191.866C175.969 191.807 175.894 191.763 175.812 191.735C175.73 191.707 175.644 191.697 175.558 191.705C175.312 191.705 175.231 191.847 175.207 191.951C175.108 192.378 175.961 193.217 176.406 193.43C176.426 193.432 176.446 193.429 176.463 193.42ZM175.463 191.885H175.553C175.619 191.879 175.684 191.887 175.746 191.909C175.808 191.93 175.865 191.964 175.913 192.008C176.176 192.347 176.323 192.76 176.335 193.188C175.885 192.899 175.312 192.24 175.387 191.984C175.378 191.97 175.406 191.908 175.463 191.885Z" fill="#407BFF"/>
<path d="M191.423 73.1335C191.184 73.1024 190.94 73.1292 190.713 73.2117C190.487 73.2941 190.283 73.4299 190.119 73.6075C188.811 75.0295 185.692 79.3761 185.048 89.5197C184.533 97.1806 185.239 104.875 187.138 112.314L195.243 110.011C195.503 109.938 195.729 109.775 195.879 109.551C196.03 109.326 196.095 109.056 196.063 108.788C195.845 106.892 195.376 102.327 195.243 97.2222C195.153 93.6293 195.424 90.3918 195.409 88.9224C194.518 87.1781 192.916 84.3294 193.513 81.2247C194.158 77.7597 196.063 77.2857 197.362 76.6506C197.53 76.5628 197.671 76.4299 197.768 76.2668C197.865 76.1037 197.915 75.9168 197.912 75.727C197.909 75.5372 197.854 75.3519 197.751 75.1919C197.649 75.0319 197.505 74.9035 197.334 74.8209C195.457 73.971 193.465 73.4024 191.423 73.1335Z" fill="#407BFF"/>
<path d="M180.014 112.3L174.459 110.556C174.25 110.49 174.065 110.366 173.926 110.198C173.786 110.029 173.698 109.825 173.672 109.608C173.198 105.939 171.216 89.0978 173.776 76.5937C173.861 76.1716 174.054 75.7788 174.337 75.4539C174.619 75.129 174.981 74.8831 175.388 74.7403C176.987 74.1975 178.642 73.8366 180.322 73.6644C180.371 73.6591 180.421 73.6661 180.466 73.6847C180.512 73.7033 180.552 73.7329 180.584 73.7709C180.615 73.809 180.637 73.8542 180.647 73.9026C180.656 73.951 180.654 74.0011 180.639 74.0483C179.587 77.9114 177.833 99.066 180.014 112.3Z" fill="#407BFF"/>
<path d="M172.728 99.4073C172.827 101.18 172.955 102.815 173.083 104.252C175.098 104.479 177.159 104.636 179.207 104.726C179.112 103.157 179.046 101.55 179.013 99.9335C176.889 99.8292 174.775 99.6586 172.728 99.4073Z" fill="white"/>
<path d="M179.066 91.046C176.814 90.9512 174.601 90.7758 172.496 90.5056C172.496 92.1457 172.496 93.7573 172.548 95.3072C174.639 95.5632 176.814 95.7291 178.98 95.8191C178.985 94.2028 179.018 92.6007 179.066 91.046Z" fill="white"/>
<path d="M195.314 99.6254C192.352 99.9145 188.83 100.099 185.123 100.099C185.256 101.839 185.436 103.441 185.64 104.868C189.266 104.868 192.693 104.655 195.632 104.365C195.523 102.92 195.409 101.308 195.314 99.6254Z" fill="white"/>
<path d="M195.366 90.534C192.214 90.8611 188.63 91.0838 184.962 91.1312C184.895 92.7855 184.886 94.3829 184.919 95.9044C188.545 95.857 192.072 95.6437 195.228 95.3261C195.233 93.4775 195.314 91.8043 195.366 90.534Z" fill="white"/>
<path d="M210.245 115.182L188.711 118.775C188.573 118.801 188.43 118.797 188.294 118.764C188.157 118.73 188.029 118.668 187.918 118.582C187.806 118.495 187.715 118.386 187.649 118.262C187.583 118.138 187.545 118.001 187.536 117.86L186.507 104.512C186.489 104.213 186.582 103.918 186.767 103.682C186.952 103.446 187.217 103.286 187.512 103.232L209.06 99.6396C209.198 99.613 209.341 99.6163 209.478 99.6493C209.615 99.6822 209.744 99.7441 209.855 99.8307C209.966 99.9173 210.058 100.027 210.123 100.151C210.189 100.276 210.227 100.414 210.235 100.554L211.264 113.902C211.281 114.203 211.187 114.501 210.999 114.737C210.811 114.973 210.542 115.131 210.245 115.182Z" fill="#407BFF"/>
<path opacity="0.4" d="M210.245 115.182L189.209 118.69C189.071 118.716 188.928 118.713 188.791 118.68C188.654 118.647 188.525 118.585 188.414 118.498C188.303 118.412 188.211 118.303 188.146 118.178C188.08 118.053 188.042 117.916 188.034 117.775L187.005 104.427C186.987 104.128 187.08 103.832 187.265 103.597C187.45 103.361 187.715 103.201 188.01 103.147L209.046 99.6396C209.185 99.613 209.327 99.6163 209.464 99.6493C209.601 99.6822 209.73 99.7441 209.841 99.8307C209.952 99.9173 210.044 100.027 210.109 100.151C210.175 100.276 210.213 100.414 210.222 100.554L211.25 113.902C211.268 114.201 211.175 114.497 210.99 114.732C210.805 114.968 210.54 115.128 210.245 115.182Z" fill="black"/>
<path d="M197.685 77.4516C198.884 80.1818 199.946 82.8979 200.908 85.7039C201.382 87.0975 201.856 88.51 202.278 89.932C202.491 90.6478 202.695 91.354 202.889 92.0935L203.036 92.6338L203.188 93.2595C203.297 93.6861 203.358 94.1127 203.434 94.5346C203.802 97.7423 203.517 100.991 202.595 104.086C202.186 105.559 201.686 107.006 201.097 108.418C200.799 109.12 200.486 109.807 200.149 110.489C199.813 111.172 199.481 111.826 199.073 112.523L196.49 111.295C196.903 110.011 197.32 108.627 197.628 107.276C197.936 105.925 198.234 104.55 198.438 103.199C198.638 101.87 198.746 100.529 198.761 99.1845C198.788 97.9236 198.668 96.6638 198.405 95.4304C198.325 95.146 198.272 94.8474 198.173 94.5772L198.035 94.1506L197.86 93.6766C197.628 93.013 197.386 92.3542 197.125 91.6906C196.651 90.3586 196.097 89.0314 195.575 87.6995L192.371 79.7363L197.685 77.4516Z" fill="#FFB573"/>
<path d="M196.803 75.0343C200.22 76.3141 202.424 86.1211 202.424 86.1211L194.864 91.3351C194.864 91.3351 192.542 85.5286 191.262 81.0019C189.882 76.0771 192.67 73.5175 196.803 75.0343Z" fill="#407BFF"/>
<path opacity="0.5" d="M196.803 75.0343C200.22 76.3141 202.424 86.1211 202.424 86.1211L194.864 91.3351C194.864 91.3351 192.542 85.5286 191.262 81.0019C189.882 76.0771 192.67 73.5175 196.803 75.0343Z" fill="white"/>
<path d="M196.181 111.892L195.522 114.808L200.078 114.675C200.078 114.675 200.443 111.153 198.656 110.598L197.234 110.869C196.978 110.919 196.742 111.043 196.556 111.224C196.369 111.406 196.239 111.638 196.181 111.892Z" fill="#FFB573"/>
<path d="M196.949 118.448L199.689 117.889C199.85 117.856 199.993 117.765 200.093 117.635C200.192 117.504 200.241 117.341 200.229 117.178L200.078 114.675L195.522 114.808L196.148 117.912C196.184 118.089 196.288 118.245 196.438 118.346C196.588 118.446 196.772 118.483 196.949 118.448Z" fill="#FFB573"/>
<path d="M157.147 54.51H75.3207C75.0899 54.5106 74.8615 54.5573 74.649 54.6475C74.4365 54.7376 74.2442 54.8694 74.0834 55.0351C73.9226 55.2007 73.7966 55.3969 73.7128 55.612C73.629 55.8271 73.5891 56.0568 73.5954 56.2875L76.9134 168.981C76.9269 169.431 77.1152 169.858 77.4382 170.171C77.7612 170.484 78.1935 170.659 78.6435 170.659H160.446C160.678 170.659 160.907 170.613 161.121 170.522C161.334 170.432 161.527 170.3 161.689 170.134C161.85 169.968 161.976 169.771 162.06 169.555C162.144 169.339 162.183 169.108 162.176 168.877L158.858 56.188C158.846 55.7411 158.661 55.3164 158.342 55.0034C158.023 54.6904 157.594 54.5135 157.147 54.51Z" fill="#407BFF"/>
<path opacity="0.2" d="M157.147 54.51H75.3207C75.0899 54.5106 74.8615 54.5573 74.649 54.6475C74.4365 54.7376 74.2442 54.8694 74.0834 55.0351C73.9226 55.2007 73.7966 55.3969 73.7128 55.612C73.629 55.8271 73.5891 56.0568 73.5954 56.2875L76.9134 168.981C76.9269 169.431 77.1152 169.858 77.4382 170.171C77.7612 170.484 78.1935 170.659 78.6435 170.659H160.446C160.678 170.659 160.907 170.613 161.121 170.522C161.334 170.432 161.527 170.3 161.689 170.134C161.85 169.968 161.976 169.771 162.06 169.555C162.144 169.339 162.183 169.108 162.176 168.877L158.858 56.188C158.846 55.7411 158.661 55.3164 158.342 55.0034C158.023 54.6904 157.594 54.5135 157.147 54.51Z" fill="black"/>
<path d="M93.2901 52.8653H85.6113V53.3393H93.2901V52.8653Z" fill="#407BFF"/>
<path d="M82.872 52.8653H80.9238V53.3393H82.872V52.8653Z" fill="#407BFF"/>
<path d="M157.934 54.51H76.1126C75.8813 54.5099 75.6524 54.5562 75.4394 54.6461C75.2263 54.736 75.0334 54.8677 74.8722 55.0334C74.7109 55.1991 74.5844 55.3955 74.5003 55.6109C74.4162 55.8263 74.3761 56.0564 74.3825 56.2875L77.7005 168.981C77.7152 169.43 77.9038 169.856 78.2266 170.169C78.5493 170.482 78.981 170.658 79.4306 170.659H161.238C161.469 170.658 161.698 170.612 161.911 170.521C162.124 170.431 162.316 170.298 162.477 170.132C162.638 169.966 162.764 169.769 162.848 169.554C162.931 169.338 162.971 169.108 162.964 168.877L159.646 56.188C159.632 55.7415 159.447 55.3175 159.128 55.0047C158.809 54.692 158.381 54.5147 157.934 54.51Z" fill="#407BFF"/>
<path opacity="0.2" d="M77.8898 60.6294L80.9614 165.587C80.9772 166.039 81.1671 166.467 81.4912 166.783C81.8153 167.098 82.2487 167.276 82.7009 167.279H156.797C157.016 167.28 157.234 167.237 157.437 167.151C157.639 167.066 157.822 166.94 157.975 166.782C158.128 166.624 158.247 166.437 158.326 166.231C158.404 166.026 158.44 165.807 158.432 165.587L155.36 60.6294C155.344 60.1779 155.155 59.7501 154.83 59.4355C154.506 59.121 154.073 58.9441 153.621 58.9419H79.5251C79.3056 58.9405 79.0879 58.9836 78.8855 59.0685C78.683 59.1535 78.4998 59.2786 78.347 59.4363C78.1941 59.594 78.0749 59.781 77.9963 59.986C77.9177 60.1911 77.8815 60.4099 77.8898 60.6294Z" fill="black"/>
<path d="M78.4016 60.1175L81.4731 165.075C81.489 165.527 81.679 165.955 82.0032 166.269C82.3275 166.584 82.7609 166.761 83.2127 166.763H157.308C157.528 166.764 157.746 166.721 157.948 166.636C158.151 166.551 158.334 166.426 158.487 166.268C158.639 166.111 158.759 165.924 158.837 165.719C158.916 165.514 158.952 165.295 158.944 165.075L155.872 60.1175C155.856 59.666 155.666 59.2382 155.342 58.9236C155.018 58.6091 154.584 58.4322 154.133 58.43H80.0369C79.8173 58.4286 79.5997 58.4716 79.3972 58.5566C79.1947 58.6416 79.0115 58.7667 78.8587 58.9244C78.7059 59.0821 78.5866 59.2691 78.508 59.4741C78.4294 59.6792 78.3932 59.898 78.4016 60.1175Z" fill="white"/>
<path d="M101.182 93.9231H86.9435L86.5264 79.6794H100.765L101.182 93.9231Z" fill="#F5F5F5"/>
<path d="M147.54 85.3343H107.278L107.202 82.6799H147.464L147.54 85.3343Z" fill="#E0E0E0"/>
<path d="M138.946 90.9227H107.444L107.363 88.2683H138.87L138.946 90.9227Z" fill="#E0E0E0"/>
<path d="M101.931 119.467H87.6925L87.2754 105.228H101.514L101.931 119.467Z" fill="#F5F5F5"/>
<path d="M122.821 110.883H108.027L107.951 108.224H122.74L122.821 110.883Z" fill="#E0E0E0"/>
<path d="M136.827 110.883H125.949L125.868 108.224H136.751L136.827 110.883Z" fill="#E0E0E0"/>
<path d="M143.421 116.471H108.188L108.112 113.812H143.345L143.421 116.471Z" fill="#E0E0E0"/>
<path d="M102.68 145.016H88.4406L88.0234 130.772H102.262L102.68 145.016Z" fill="#F5F5F5"/>
<path d="M149.123 139.356H108.861L108.937 142.015H149.199L149.123 139.356Z" fill="#E0E0E0"/>
<path d="M140.202 133.772H108.695L108.776 136.427H140.278L140.202 133.772Z" fill="#E0E0E0"/>
<path d="M94.7688 90.2212C94.7086 90.3058 94.6282 90.3741 94.5348 90.4196C94.4415 90.4651 94.3382 90.4865 94.2345 90.4818C94.1307 90.4771 94.0298 90.4464 93.941 90.3926C93.8522 90.3388 93.7782 90.2636 93.726 90.1738C92.778 88.657 91.0337 87.2729 90.0193 86.5856C89.8874 86.4982 89.7933 86.3643 89.7555 86.2106C89.7178 86.057 89.7392 85.8947 89.8155 85.7561C89.8579 85.6831 89.915 85.6197 89.9833 85.57C90.0516 85.5203 90.1295 85.4854 90.2121 85.4676C90.2946 85.4497 90.38 85.4493 90.4627 85.4664C90.5454 85.4834 90.6236 85.5175 90.6924 85.5665C91.8155 86.3203 92.845 87.205 93.7592 88.202C93.8165 88.2723 93.8888 88.329 93.9708 88.368C94.0528 88.4069 94.1424 88.4271 94.2332 88.4271C94.3239 88.4271 94.4136 88.4069 94.4956 88.368C94.5776 88.329 94.6498 88.2723 94.7072 88.202C96.8346 85.6775 99.2621 83.422 101.936 81.4854C102.069 81.3878 102.236 81.347 102.399 81.3719C102.563 81.3967 102.709 81.4853 102.808 81.6181C102.858 81.6821 102.895 81.7554 102.916 81.8337C102.938 81.912 102.944 81.9939 102.934 82.0745C102.924 82.1551 102.898 82.2329 102.857 82.3035C102.817 82.374 102.763 82.4359 102.699 82.4855C99.0585 85.2395 96.4705 87.7754 94.7925 90.2212H94.7688Z" fill="#407BFF"/>
<path d="M95.5181 115.77C95.4569 115.853 95.3759 115.92 95.2825 115.964C95.189 116.009 95.086 116.029 94.9827 116.024C94.8794 116.019 94.779 115.988 94.6904 115.935C94.6019 115.881 94.528 115.807 94.4753 115.718C93.551 114.201 91.783 112.817 90.7639 112.134C90.6328 112.046 90.5396 111.912 90.5028 111.758C90.4659 111.605 90.488 111.443 90.5648 111.305C90.6086 111.232 90.6667 111.17 90.7357 111.121C90.8046 111.072 90.8828 111.038 90.9655 111.021C91.0482 111.003 91.1335 111.003 91.2163 111.02C91.299 111.037 91.3774 111.071 91.4465 111.12C92.569 111.871 93.5971 112.754 94.5085 113.751C94.5663 113.82 94.6388 113.876 94.7207 113.915C94.8026 113.953 94.892 113.973 94.9825 113.973C95.073 113.973 95.1624 113.953 95.2443 113.915C95.3262 113.876 95.3987 113.82 95.4565 113.751C97.5783 111.229 99.9993 108.975 102.666 107.039C102.732 106.99 102.807 106.954 102.886 106.935C102.966 106.915 103.049 106.911 103.13 106.923C103.211 106.936 103.289 106.964 103.359 107.006C103.429 107.049 103.49 107.105 103.538 107.171C103.638 107.3 103.682 107.464 103.662 107.625C103.641 107.787 103.558 107.934 103.429 108.034C99.7889 110.793 97.2008 113.329 95.5229 115.775L95.5181 115.77Z" fill="#407BFF"/>
<path d="M96.2478 141.371C96.1865 141.454 96.1055 141.521 96.0121 141.565C95.9187 141.61 95.8157 141.63 95.7124 141.625C95.609 141.62 95.5086 141.589 95.4201 141.536C95.3315 141.482 95.2576 141.407 95.205 141.318C94.257 139.802 92.5127 138.418 91.4983 137.735C91.3673 137.647 91.2738 137.513 91.2361 137.36C91.1984 137.206 91.2192 137.044 91.2945 136.905C91.3369 136.832 91.394 136.769 91.4623 136.719C91.5306 136.67 91.6085 136.635 91.691 136.617C91.7736 136.599 91.8589 136.599 91.9416 136.616C92.0244 136.633 92.1026 136.667 92.1714 136.716C93.2935 137.469 94.3228 138.352 95.2381 139.347C95.296 139.416 95.3684 139.472 95.4503 139.511C95.5323 139.549 95.6217 139.569 95.7121 139.569C95.8026 139.569 95.892 139.549 95.974 139.511C96.0559 139.472 96.1283 139.416 96.1861 139.347C98.305 136.824 100.725 134.57 103.391 132.635C103.457 132.586 103.532 132.55 103.611 132.531C103.691 132.511 103.774 132.507 103.855 132.519C103.936 132.532 104.014 132.56 104.084 132.603C104.154 132.645 104.215 132.701 104.263 132.767C104.314 132.831 104.351 132.904 104.373 132.982C104.395 133.06 104.401 133.141 104.391 133.222C104.381 133.302 104.354 133.38 104.314 133.45C104.273 133.52 104.219 133.581 104.154 133.63C100.519 136.389 97.9257 138.925 96.2478 141.371Z" fill="#407BFF"/>
<path d="M129.148 160.387C127.558 160.402 126.013 159.866 124.773 158.871C123.787 158.188 122.877 157.548 121.014 157.548C119.666 157.523 118.356 157.994 117.331 158.871C116.136 159.87 114.623 160.408 113.065 160.387C111.474 160.403 109.927 159.867 108.686 158.871C107.7 158.188 106.79 157.548 104.927 157.548C103.58 157.522 102.27 157.993 101.248 158.871C100.053 159.869 98.5399 160.407 96.9824 160.387C95.3928 160.402 93.847 159.866 92.6074 158.871C91.6215 158.188 90.7114 157.548 88.8486 157.548L88.8154 156.482C90.4067 156.466 91.9542 157.002 93.1952 157.998C94.2525 158.87 95.5842 159.338 96.954 159.321C98.3009 159.347 99.6102 158.876 100.632 157.998C101.833 156.994 103.356 156.455 104.922 156.482C106.512 156.467 108.057 157.003 109.297 157.998C110.283 158.681 111.193 159.321 113.056 159.321C114.403 159.347 115.712 158.876 116.734 157.998C117.936 156.995 119.458 156.457 121.024 156.482C122.615 156.466 124.162 157.002 125.403 157.998C126.389 158.681 127.299 159.321 129.162 159.321L129.148 160.387Z" fill="#EBEBEB"/>
<path d="M136.201 57.7712H136.111C135.016 54.2967 132.39 51.9931 129.523 51.9931H123.683C123.231 51.9762 122.795 51.8193 122.436 51.5442C122.077 51.2692 121.812 50.8894 121.678 50.4573C120.896 48.2438 118.976 46.6653 116.772 46.6653C114.568 46.6653 112.734 48.2438 112.065 50.4573C111.954 50.887 111.706 51.2689 111.359 51.5458C111.012 51.8227 110.585 51.9797 110.141 51.9931H104.306C101.438 51.9931 98.9307 54.2967 98.0206 57.7712H97.9353C97.7686 57.7825 97.6059 57.827 97.4568 57.9022C97.3076 57.9773 97.175 58.0816 97.0668 58.2088C96.9585 58.3361 96.8769 58.4837 96.8266 58.643C96.7763 58.8022 96.7584 58.97 96.774 59.1363C96.7658 59.4778 96.8891 59.8095 97.1184 60.0627C97.3478 60.3159 97.6657 60.4712 98.0064 60.4967H136.282C136.449 60.4859 136.611 60.442 136.761 60.3674C136.91 60.2928 137.043 60.189 137.152 60.0623C137.26 59.9355 137.343 59.7882 137.393 59.6292C137.444 59.4702 137.463 59.3026 137.448 59.1363C137.457 58.7916 137.332 58.4568 137.1 58.2022C136.868 57.9476 136.545 57.7931 136.201 57.7712Z" fill="#263238"/>
<path d="M92.7974 69.5121L93.0486 69.678L93.2856 69.787L93.0249 70.3511C92.8768 70.2814 92.7342 70.2006 92.5983 70.1094C92.4968 70.0433 92.3987 69.9721 92.3044 69.8961C92.0414 70.003 91.7587 70.053 91.4749 70.043C91.0452 70.0667 90.6222 69.9279 90.2899 69.6543C90.1131 69.4914 89.9733 69.2924 89.8801 69.0708C89.7869 68.8492 89.7424 68.6101 89.7496 68.3698C89.7173 68.1454 89.7366 67.9166 89.8062 67.7009C89.8758 67.4851 89.9937 67.2881 90.151 67.1249C90.3083 66.9616 90.5008 66.8365 90.7138 66.759C90.9268 66.6815 91.1547 66.6536 91.3801 66.6776C91.6083 66.6631 91.8371 66.6937 92.0535 66.7678C92.2698 66.8418 92.4695 66.9577 92.641 67.1089C92.9217 67.4396 93.0885 67.8518 93.1167 68.2847C93.1448 68.7175 93.0329 69.1479 92.7974 69.5121ZM92.0153 68.9955C92.102 68.7923 92.1362 68.5706 92.1148 68.3508C92.1277 68.1007 92.0559 67.8536 91.911 67.6493C91.8465 67.5784 91.7672 67.5226 91.6788 67.4857C91.5903 67.4489 91.4948 67.4319 91.3991 67.436C91.3086 67.433 91.2186 67.4512 91.1363 67.489C91.0541 67.5269 90.9817 67.5834 90.9251 67.654C90.7868 67.8494 90.7275 68.0899 90.7592 68.3271C90.7415 68.5925 90.8133 68.8562 90.963 69.076C91.0256 69.1467 91.1032 69.2025 91.1902 69.2394C91.2771 69.2763 91.3711 69.2934 91.4655 69.2893C91.53 69.2968 91.5952 69.2968 91.6598 69.2893C91.5396 69.1872 91.4013 69.1084 91.2522 69.0571L91.3991 68.6968C91.471 68.7057 91.5412 68.7248 91.6077 68.7537C91.7109 68.8109 91.8106 68.8742 91.9063 68.9433L92.0153 68.9955Z" fill="#263238"/>
<path d="M95.7314 66.7298H96.722L96.7789 68.6732C96.7904 68.8521 96.7712 69.0316 96.722 69.204C96.6715 69.3735 96.5804 69.5281 96.4566 69.6543C96.3454 69.7727 96.2095 69.865 96.0584 69.9245C95.8329 70.002 95.5953 70.0389 95.3569 70.0335C95.1842 70.0333 95.0116 70.0222 94.8402 70.0004C94.6757 69.984 94.5153 69.9391 94.3662 69.8676C94.2324 69.7958 94.112 69.7012 94.0107 69.588C93.9133 69.4785 93.8377 69.3514 93.788 69.2135C93.7246 69.0367 93.6878 68.8513 93.6789 68.6637L93.6221 66.7203H94.6269L94.6838 68.7063C94.6811 68.7831 94.694 68.8597 94.7217 68.9314C94.7494 69.0031 94.7913 69.0684 94.845 69.1235C94.8999 69.1753 94.9648 69.2154 95.0357 69.2415C95.1065 69.2676 95.1819 69.279 95.2574 69.2751C95.3314 69.2791 95.4054 69.2677 95.4747 69.2416C95.5441 69.2155 95.6072 69.1752 95.6603 69.1235C95.7474 69.0119 95.7882 68.8709 95.774 68.73L95.7314 66.7298Z" fill="#263238"/>
<path d="M99.3287 69.4506H98.1864L98.0442 69.9862H97.0156L98.1437 66.7298H99.2387L100.561 69.9862H99.5041L99.3287 69.4506ZM99.0917 68.7301L98.6983 67.5593L98.3807 68.7301H99.0917Z" fill="#263238"/>
<path d="M100.784 66.7298H101.789L101.86 69.1851H103.434L103.458 69.9862H100.879L100.784 66.7298Z" fill="#263238"/>
<path d="M103.855 66.7298H104.865L104.96 69.9862H103.95L103.855 66.7298Z" fill="#263238"/>
<path d="M105.358 66.7298H108.416L108.439 67.5356H107.416L107.487 69.9862H106.482L106.406 67.5356H105.382L105.358 66.7298Z" fill="#263238"/>
<path d="M108.543 66.7298H109.662L110.349 67.8295L110.975 66.7298H112.084L110.875 68.6258L110.913 69.9862H109.903L109.865 68.6258L108.543 66.7298Z" fill="#263238"/>
<path d="M116.004 69.4506H114.861L114.719 69.9862H113.695L114.823 66.7298H115.918L117.236 69.9862H116.184L116.004 69.4506ZM115.776 68.7301L115.383 67.5593L115.06 68.7301H115.776Z" fill="#263238"/>
<path d="M117.351 68.9101L118.299 68.8485C118.313 68.9762 118.358 69.0983 118.431 69.204C118.488 69.273 118.561 69.3271 118.644 69.3618C118.726 69.3965 118.816 69.4106 118.905 69.4031C119.025 69.413 119.143 69.3774 119.237 69.3036C119.272 69.2744 119.299 69.2381 119.318 69.1972C119.337 69.1562 119.346 69.1116 119.346 69.0666C119.343 69.0225 119.331 68.9795 119.311 68.9403C119.29 68.9011 119.262 68.8666 119.228 68.839C119.069 68.7411 118.891 68.6781 118.706 68.6542C118.364 68.5972 118.039 68.4608 117.758 68.256C117.6 68.1252 117.496 67.9412 117.464 67.7385C117.433 67.5359 117.477 67.3288 117.588 67.1563C117.689 66.997 117.838 66.8741 118.014 66.8056C118.268 66.709 118.539 66.6655 118.811 66.6776C119.143 66.6576 119.473 66.7386 119.759 66.9099C119.875 66.9963 119.972 67.1064 120.043 67.2331C120.114 67.3597 120.158 67.4999 120.171 67.6446L119.223 67.7014C119.207 67.5793 119.148 67.4668 119.057 67.3839C118.959 67.3138 118.841 67.2788 118.72 67.2843C118.626 67.277 118.533 67.3021 118.455 67.3554C118.428 67.3767 118.407 67.4042 118.393 67.4356C118.379 67.467 118.372 67.5012 118.374 67.5355C118.375 67.5635 118.382 67.5909 118.396 67.6156C118.409 67.6403 118.427 67.6616 118.45 67.6777C118.554 67.741 118.671 67.7814 118.792 67.7962C119.118 67.8551 119.436 67.9521 119.74 68.0854C119.913 68.1634 120.06 68.2882 120.166 68.4456C120.255 68.5882 120.304 68.7518 120.308 68.9196C120.315 69.1221 120.26 69.3219 120.152 69.4932C120.041 69.6742 119.875 69.8153 119.678 69.8961C119.429 69.9948 119.163 70.0416 118.896 70.0335C118.482 70.0755 118.068 69.9604 117.735 69.7112C117.517 69.4971 117.381 69.2138 117.351 68.9101Z" fill="#263238"/>
<path d="M120.635 68.9102L121.583 68.8485C121.598 68.9767 121.645 69.0989 121.72 69.204C121.775 69.2696 121.844 69.3217 121.922 69.3563C122 69.3908 122.085 69.4068 122.171 69.4031C122.29 69.413 122.408 69.3774 122.502 69.3036C122.537 69.2745 122.564 69.2381 122.583 69.1972C122.602 69.1562 122.612 69.1116 122.611 69.0666C122.608 69.0225 122.596 68.9795 122.576 68.9403C122.556 68.9011 122.527 68.8666 122.493 68.8391C122.334 68.7411 122.156 68.6781 121.971 68.6542C121.628 68.5981 121.304 68.4616 121.023 68.256C120.929 68.181 120.853 68.0859 120.801 67.9776C120.748 67.8693 120.721 67.7507 120.72 67.6303C120.715 67.4631 120.759 67.2981 120.848 67.1563C120.952 66.9977 121.103 66.8752 121.279 66.8056C121.533 66.709 121.804 66.6655 122.076 66.6776C122.408 66.6585 122.738 66.7394 123.024 66.9099C123.14 66.9963 123.237 67.1064 123.309 67.2331C123.38 67.3597 123.423 67.4999 123.436 67.6446L122.488 67.7015C122.472 67.5781 122.412 67.465 122.317 67.3839C122.22 67.3124 122.101 67.2772 121.981 67.2843C121.888 67.2777 121.797 67.3028 121.72 67.3554C121.694 67.3772 121.672 67.4047 121.657 67.4359C121.643 67.467 121.635 67.5011 121.635 67.5355C121.638 67.5635 121.646 67.5906 121.66 67.6151C121.674 67.6396 121.693 67.6609 121.715 67.6778C121.82 67.741 121.936 67.7814 122.057 67.7963C122.383 67.8551 122.701 67.9521 123.005 68.0854C123.177 68.1647 123.324 68.2892 123.431 68.4456C123.52 68.5883 123.569 68.7518 123.574 68.9196C123.58 69.1221 123.525 69.3219 123.417 69.4932C123.306 69.6747 123.14 69.8159 122.943 69.8961C122.696 69.9949 122.432 70.0416 122.166 70.0335C121.752 70.0755 121.337 69.9604 121.004 69.7112C120.792 69.4951 120.662 69.2119 120.635 68.9102Z" fill="#263238"/>
<path d="M126.148 66.7298H127.153L127.209 68.6732C127.216 68.8563 127.19 69.0392 127.134 69.2135C127.083 69.383 126.992 69.5376 126.868 69.6638C126.757 69.7822 126.621 69.8745 126.47 69.934C126.244 70.0111 126.007 70.048 125.768 70.043C125.596 70.0429 125.423 70.0318 125.252 70.0099C125.087 69.9935 124.927 69.9486 124.778 69.8771C124.644 69.8053 124.524 69.7107 124.422 69.5975C124.328 69.4812 124.257 69.3475 124.214 69.2041C124.15 69.0272 124.114 68.8419 124.105 68.6542L124.048 66.7108H125.048L125.11 68.6969C125.104 68.8511 125.161 69.0011 125.266 69.114C125.322 69.1655 125.388 69.2054 125.459 69.2314C125.531 69.2575 125.607 69.2691 125.683 69.2657C125.757 69.2696 125.831 69.2582 125.901 69.2321C125.97 69.206 126.033 69.1658 126.086 69.114C126.137 69.0579 126.175 68.9917 126.197 68.9198C126.22 68.8478 126.228 68.7718 126.219 68.6969L126.148 66.7298Z" fill="#263238"/>
<path d="M127.925 69.9862L127.83 66.7298H129.508C129.749 66.7219 129.99 66.749 130.224 66.8104C130.388 66.8645 130.53 66.969 130.631 67.109C130.738 67.2641 130.795 67.4472 130.797 67.6351C130.808 67.7998 130.771 67.964 130.693 68.1091C130.62 68.2401 130.514 68.3496 130.385 68.4267C130.276 68.4884 130.157 68.5316 130.034 68.5547C130.128 68.5803 130.218 68.6203 130.3 68.6732C130.419 68.7848 130.524 68.9106 130.612 69.0477L131.129 69.9957H129.992L129.427 69.0003C129.379 68.906 129.315 68.821 129.238 68.749C129.163 68.7006 129.076 68.6743 128.987 68.6732H128.897L128.939 69.9957L127.925 69.9862ZM128.873 68.0523H129.295C129.385 68.0458 129.474 68.0299 129.56 68.0049C129.624 67.9918 129.681 67.9565 129.721 67.9053C129.759 67.8494 129.779 67.7832 129.778 67.7157C129.779 67.6698 129.77 67.6243 129.751 67.5825C129.732 67.5407 129.704 67.5036 129.669 67.474C129.557 67.4054 129.426 67.3754 129.295 67.3887H128.849L128.873 68.0523Z" fill="#263238"/>
<path d="M133.438 69.4506H132.296L132.154 69.9862H131.125L132.253 66.7298H133.348L134.671 69.9862H133.614L133.438 69.4506ZM133.22 68.7301L132.827 67.5593L132.509 68.7301H133.22Z" fill="#263238"/>
<path d="M134.897 66.7298H135.845L137.121 68.531L137.068 66.7298H138.016L138.111 69.9862H137.163L135.893 68.1992L135.945 69.9862H134.997L134.897 66.7298Z" fill="#263238"/>
<path d="M140.903 68.6542L141.794 68.9196C141.753 69.143 141.664 69.3548 141.533 69.5406C141.41 69.7041 141.247 69.8331 141.059 69.915C140.833 70.008 140.589 70.0517 140.344 70.043C140.045 70.0537 139.748 70.0003 139.471 69.8866C139.237 69.7627 139.041 69.5755 138.907 69.3462C138.725 69.0463 138.63 68.7017 138.632 68.3508C138.611 68.128 138.635 67.9033 138.703 67.6899C138.77 67.4766 138.88 67.279 139.026 67.109C139.186 66.958 139.376 66.8418 139.583 66.7675C139.79 66.6933 140.01 66.6627 140.23 66.6776C140.573 66.6588 140.913 66.7448 141.206 66.9241C141.463 67.1157 141.653 67.3824 141.751 67.6872L140.87 67.8863C140.843 67.8099 140.808 67.7367 140.765 67.6683C140.708 67.5945 140.635 67.5346 140.552 67.4929C140.467 67.4493 140.373 67.4265 140.277 67.4265C140.174 67.4228 140.073 67.4462 139.982 67.4945C139.891 67.5428 139.815 67.6142 139.761 67.7015C139.661 67.9008 139.62 68.1243 139.642 68.3461C139.623 68.606 139.688 68.865 139.827 69.0855C139.885 69.1533 139.958 69.2069 140.04 69.2422C140.122 69.2776 140.212 69.2937 140.301 69.2894C140.381 69.295 140.46 69.283 140.535 69.2544C140.61 69.2257 140.677 69.181 140.732 69.1235C140.83 68.9851 140.889 68.8231 140.903 68.6542Z" fill="#263238"/>
<path d="M142.226 66.7298H144.923V67.4266H143.235V67.9432H144.799V68.6068H143.235V69.2515H144.975V69.9862H142.23L142.226 66.7298Z" fill="#263238"/>
<path d="M60.1059 107.707C60.1059 107.707 58.7597 137.204 58.5038 149.149C58.2336 161.577 58.1151 190.595 58.1151 190.595H54.982C54.982 190.595 49.9765 166.478 51.4601 149.149C49.2181 135.844 47.7061 107.707 47.7061 107.707H60.1059Z" fill="#FF8B7B"/>
<path d="M55.9584 107.707C55.9584 107.707 48.4881 138.598 45.4356 150.149C42.2124 162.279 37.88 189.695 37.8516 190.595H35.1403C35.1403 190.595 34.2871 158.923 38.5815 148.153C38.5815 134.659 44.1937 107.707 44.1937 107.707H55.9584Z" fill="#FF8B7B"/>
<path d="M35.0735 188.951C34.5569 189.538 34.1255 192.582 34.9218 193.937C35.7182 195.293 34.9218 197.298 37.5288 197.298C40.1358 197.298 40.3728 196.729 39.7329 195.516C39.093 194.302 38.3109 192.022 38.3394 190.595C38.3678 188.756 39.0741 187.808 35.0735 188.951Z" fill="#263238"/>
<path d="M34.7511 192.122C34.6942 193.686 34.7274 196.241 34.7274 196.241H35.1398C35.1398 196.241 35.4479 193.444 35.7086 192.406L34.7511 192.122Z" fill="#263238"/>
<path d="M62.7743 88.8372C63.1109 91.2451 63.4095 93.653 63.6844 96.0657C63.9593 98.4783 64.2295 100.896 64.4902 103.332C64.5518 103.934 64.5992 104.569 64.7035 105.072C64.7461 105.332 64.7983 105.603 64.8599 105.892C64.9215 106.181 64.9689 106.456 65.04 106.735C65.296 107.864 65.6231 108.996 65.988 110.129C66.353 111.262 66.7038 112.395 67.1209 113.518C67.538 114.642 67.9551 115.779 68.3912 116.874L66.6421 117.822C65.2753 115.709 64.0801 113.49 63.0682 111.186C62.5583 110.025 62.1089 108.839 61.722 107.631C61.6177 107.333 61.5324 107.015 61.4424 106.707C61.3523 106.399 61.2622 106.086 61.1864 105.759C61.0379 105.141 60.9208 104.516 60.8356 103.887C60.4564 101.469 60.0994 99.0487 59.7644 96.625C59.4136 94.2028 59.0913 91.7807 58.8164 89.3491L62.7743 88.8372Z" fill="#FF8B7B"/>
<path d="M62.087 85.32C63.0824 87.1828 63.5991 94.5346 64.4333 99.5827C64.4603 99.761 64.4245 99.9431 64.332 100.098C64.2395 100.253 64.096 100.37 63.9262 100.431C62.8139 100.874 61.7849 101.502 60.8831 102.289C60.7814 102.376 60.6588 102.435 60.5275 102.46C60.3961 102.485 60.2605 102.475 60.1341 102.431C60.0077 102.388 59.8948 102.312 59.8067 102.211C59.7186 102.111 59.6583 101.989 59.6317 101.858L57.2617 90.9037L58.2903 88.8276C58.5442 87.9537 59.0313 87.1654 59.6994 86.5474C60.3675 85.9295 61.1913 85.5051 62.0823 85.32H62.087Z" fill="#263238"/>
<path d="M68.3147 116.476L71.7654 118.415L68.035 119.837C68.035 119.837 66.139 118.201 66.4756 116.609L68.3147 116.476Z" fill="#FF8B7B"/>
<path d="M73.0311 121.458L69.8458 122.458L68.0352 119.813L71.7655 118.415L73.0311 121.458Z" fill="#FF8B7B"/>
<path d="M66.7939 120.614L103.32 116.305L103.363 116.651L66.8982 121.444L66.7939 120.614Z" fill="#263238"/>
<path d="M62.4371 86.6852C62.4987 89.5292 62.3234 97.5493 60.3278 109.826H43.6952C43.9653 103.332 44.7759 97.1701 41.6807 83.8981C43.8063 83.4652 45.9609 83.1895 48.1271 83.0733C50.5335 82.9025 52.9491 82.9025 55.3556 83.0733C56.9103 83.2155 58.5693 83.4667 59.8396 83.6848C60.5528 83.8073 61.2014 84.1733 61.675 84.7204C62.1486 85.2675 62.418 85.9618 62.4371 86.6852Z" fill="#263238"/>
<path opacity="0.2" d="M53.9057 109.883C53.8906 109.879 53.8772 109.871 53.8677 109.859C53.8582 109.847 53.8532 109.832 53.8535 109.816C55.3703 95.7054 54.0384 90.079 54.0242 90.0221C54.0212 90.0071 54.0239 89.9915 54.0318 89.9783C54.0396 89.9652 54.0522 89.9554 54.0668 89.951C54.0743 89.9481 54.0823 89.9468 54.0903 89.9475C54.0983 89.9481 54.1061 89.9506 54.1129 89.9548C54.1198 89.9589 54.1257 89.9645 54.13 89.9713C54.1343 89.9781 54.137 89.9857 54.1379 89.9937C54.1379 90.0506 55.4888 95.6817 53.972 109.831C53.9715 109.839 53.9693 109.846 53.9656 109.853C53.9618 109.86 53.9567 109.866 53.9504 109.871C53.9442 109.876 53.937 109.88 53.9293 109.882C53.9215 109.884 53.9135 109.884 53.9057 109.883Z" fill="white"/>
<path d="M55.3564 83.059H48.1279C48.1279 83.059 50.6117 87.2302 53.906 89.4296C55.1326 87.5465 55.6469 85.2875 55.3564 83.059Z" fill="#E0E0E0"/>
<path d="M51.2564 72.7875C52.8822 75.5319 52.2328 78.921 49.8059 80.3715C47.3791 81.8219 44.1179 80.7412 42.4732 78.0015C40.8284 75.2618 41.4967 71.8395 43.9236 70.4175C46.3505 68.9955 49.6306 70.0383 51.2564 72.7875Z" fill="#263238"/>
<path d="M41.0458 75.7879C40.9571 74.2697 41.4256 72.7713 42.3635 71.5741C42.7881 71.0106 43.3314 70.5474 43.9549 70.2173C44.5784 69.8872 45.2669 69.6982 45.9716 69.6639C46.6763 69.6295 47.3799 69.7505 48.0326 70.0184C48.6853 70.2862 49.271 70.6943 49.7484 71.2138C50.8017 72.3184 51.4153 73.7698 51.4738 75.295H51.2368C51.181 73.8268 50.5911 72.4294 49.5778 71.3655C49.1241 70.8696 48.5666 70.4798 47.945 70.2241C47.3234 69.9684 46.6531 69.8529 45.9817 69.8859C45.3104 69.919 44.6546 70.0997 44.0612 70.4153C43.4677 70.7308 42.9512 71.1734 42.5484 71.7115C41.6385 72.8633 41.1816 74.3082 41.2638 75.7737L41.0458 75.7879Z" fill="#263238"/>
<path d="M59.6826 77.1458C60.972 74.4834 59.9659 71.3317 57.4354 70.1063C54.905 68.8809 51.8085 70.0457 50.5191 72.7081C49.2298 75.3705 50.2359 78.5222 52.7663 79.7476C55.2968 80.973 58.3933 79.8082 59.6826 77.1458Z" fill="#263238"/>
<path d="M48.8476 74.9252C49.3216 77.2478 49.7577 81.5091 48.1318 83.0591C48.1318 83.0591 49.3879 85.5191 53.1041 86.3771C55.4125 84.9551 55.3603 83.0591 55.3603 83.0591C52.7676 82.4381 52.8339 80.5184 53.2842 78.7125L48.8476 74.9252Z" fill="#FF8B7B"/>
<path d="M51.5829 85.8983L48.3455 82.0826L47.2269 82.6751L47.042 88.1925L49.4404 85.0451L51.5829 85.8983Z" fill="white"/>
<path d="M53.7773 85.8983L54.8296 82.4666L56.1521 83.0591L57.6025 87.7043L55.4411 85.0451L53.7773 85.8983Z" fill="white"/>
<path opacity="0.2" d="M50.654 76.4705L53.2799 78.7077C53.1671 79.1283 53.0925 79.5583 53.0571 79.9923C52.0665 79.8501 50.6871 78.7599 50.6018 77.7218C50.5396 77.3052 50.5573 76.8805 50.654 76.4705Z" fill="black"/>
<path d="M46.393 70.6593C47.3031 74.4513 47.6112 76.0581 49.8864 77.6792C53.3134 80.1156 57.7548 78.1532 57.9918 74.1906C58.2051 70.6119 56.6788 65.0329 52.6688 64.1749C51.7855 63.9816 50.8676 64.0172 50.002 64.2785C49.1364 64.5397 48.352 65.0179 47.7232 65.6676C47.0944 66.3172 46.6421 67.1169 46.4093 67.9905C46.1765 68.8642 46.1709 69.7828 46.393 70.6593Z" fill="#FF8B7B"/>
<path d="M47.2556 72.4035C49.6256 70.9815 49.3128 66.7155 49.3128 66.7155C53.4129 66.6634 55.0008 66.7155 56.2474 66.8909C57.494 67.0663 56.7214 65.3978 54.8965 64.0469C53.0716 62.696 48.123 63.0989 46.5825 65.6822C44.6865 66.4406 42.8759 70.7445 47.2556 72.4035Z" fill="#263238"/>
<path d="M44.0371 68.73C44.0371 68.73 57.3802 65.886 60.1863 65.0755C60.1863 63.4023 53.3228 65.4737 53.3228 65.4737L44.0371 68.73Z" fill="#407BFF"/>
<path d="M57.0955 64.976C56.8395 64.028 54.8724 59.2643 48.0895 61.2171C41.8422 63.042 44.0368 68.73 44.0368 68.73L57.0955 64.976Z" fill="#407BFF"/>
<path d="M52.5075 61.0655L50.1327 60.473L47.4072 60.9564L47.4404 61.4352L49.2274 61.7243L52.5075 61.0655Z" fill="#407BFF"/>
<path opacity="0.4" d="M52.4696 65.8434C52.4099 65.8436 52.3523 65.8212 52.3084 65.7808C52.2645 65.7404 52.2374 65.6849 52.2326 65.6254C52.2326 65.4784 51.934 62.113 47.7012 61.4637C47.6395 61.4532 47.5843 61.4191 47.5471 61.3687C47.51 61.3184 47.4939 61.2555 47.5021 61.1935C47.5137 61.1323 47.548 61.0778 47.5981 61.0408C47.6482 61.0039 47.7104 60.9873 47.7723 60.9944C52.389 61.7054 52.7019 65.5543 52.7066 65.5922C52.7085 65.6233 52.7043 65.6545 52.6941 65.684C52.684 65.7135 52.6681 65.7407 52.6474 65.7641C52.6267 65.7874 52.6016 65.8064 52.5735 65.82C52.5455 65.8337 52.515 65.8416 52.4838 65.8434H52.4696Z" fill="black"/>
<path opacity="0.2" d="M58.5934 145.584L50.6681 143.65C50.4501 141.968 50.251 140.176 50.0566 138.332L58.7782 139.858C58.7071 141.906 58.6455 143.845 58.5934 145.584Z" fill="black"/>
<path opacity="0.2" d="M39.4248 136.479L48.4971 138.062C48.0847 139.716 47.6818 141.314 47.3026 142.83L38.9697 140.778C39.0977 139.399 39.2494 137.934 39.4248 136.479Z" fill="black"/>
<path d="M53.0806 70.7019C53.1328 71.0148 53.3461 71.2376 53.5546 71.1996C53.7632 71.1617 53.8817 70.8821 53.8248 70.5692C53.7679 70.2564 53.5594 70.0383 53.3508 70.0952C53.1422 70.1521 53.0237 70.3891 53.0806 70.7019Z" fill="#263238"/>
<path d="M56.5982 70.0809C56.6503 70.389 56.8636 70.6118 57.0722 70.5786C57.2808 70.5454 57.3993 70.261 57.3424 69.9482C57.2855 69.6354 57.0769 69.4126 56.8684 69.4742C56.6598 69.5358 56.5413 69.7681 56.5982 70.0809Z" fill="#263238"/>
<path d="M56.7783 69.4837L57.4893 69.1377C57.4893 69.1377 57.2097 69.7871 56.7783 69.4837Z" fill="#263238"/>
<path d="M55.7637 70.7777C56.1657 71.4392 56.6569 72.0421 57.2236 72.5694C57.085 72.7104 56.9174 72.8194 56.7324 72.889C56.5474 72.9586 56.3495 72.987 56.1524 72.9723L55.7637 70.7777Z" fill="#FF5652"/>
<path d="M54.2898 74.418C54.4678 74.4181 54.6455 74.4022 54.8207 74.3706C54.8326 74.3689 54.844 74.3648 54.8543 74.3586C54.8646 74.3524 54.8735 74.3442 54.8806 74.3344C54.8877 74.3247 54.8927 74.3137 54.8955 74.302C54.8982 74.2903 54.8986 74.2782 54.8965 74.2663C54.8919 74.2419 54.8779 74.2203 54.8575 74.2061C54.8371 74.1919 54.812 74.1863 54.7875 74.1905C54.4019 74.2666 54.0039 74.2514 53.6253 74.146C53.2466 74.0407 52.8979 73.8481 52.6071 73.5838C52.5908 73.5662 52.5681 73.5558 52.5441 73.5549C52.5201 73.554 52.4967 73.5627 52.4791 73.579C52.4615 73.5954 52.4511 73.618 52.4503 73.642C52.4494 73.666 52.4581 73.6894 52.4744 73.707C52.9629 74.1729 53.6149 74.4282 54.2898 74.418Z" fill="#263238"/>
<path d="M45.8665 72.8159C46.0127 73.1613 46.2257 73.4744 46.4933 73.7372C46.761 73.9999 47.0779 74.2072 47.426 74.3469C48.374 74.7166 48.9238 73.9156 48.7579 72.9865C48.6062 72.1523 47.9474 70.9483 46.9757 70.972C46.7612 70.9774 46.5515 71.0368 46.3661 71.1447C46.1807 71.2526 46.0255 71.4056 45.9149 71.5894C45.8043 71.7733 45.7419 71.9821 45.7334 72.1965C45.725 72.4109 45.7707 72.6239 45.8665 72.8159Z" fill="#FF8B7B"/>
<path d="M51.5305 69.2846C51.5555 69.2821 51.5798 69.2745 51.6018 69.2623C51.6238 69.25 51.6431 69.2335 51.6585 69.2135C51.7992 69.0279 51.9814 68.8778 52.1904 68.7749C52.3994 68.672 52.6295 68.6194 52.8624 68.621C52.8867 68.6236 52.9113 68.6214 52.9347 68.6145C52.9582 68.6075 52.98 68.596 52.9989 68.5806C53.0179 68.5652 53.0336 68.5461 53.0452 68.5246C53.0567 68.5031 53.0639 68.4794 53.0662 68.4551C53.0702 68.4056 53.0545 68.3564 53.0226 68.3183C52.9907 68.2802 52.9451 68.2561 52.8956 68.2513C52.6012 68.244 52.3092 68.3069 52.0439 68.4346C51.7785 68.5623 51.5473 68.7513 51.3693 68.986C51.3396 69.0247 51.3259 69.0735 51.3312 69.122C51.3365 69.1706 51.3603 69.2153 51.3978 69.2467C51.4361 69.2748 51.4831 69.2882 51.5305 69.2846Z" fill="#263238"/>
<path d="M57.2518 68.1328C57.2971 68.1178 57.3346 68.0854 57.356 68.0427C57.3673 68.0207 57.374 67.9967 57.3758 67.972C57.3776 67.9473 57.3745 67.9225 57.3665 67.8991C57.3586 67.8757 57.346 67.8541 57.3295 67.8356C57.3131 67.8171 57.2931 67.8021 57.2707 67.7915C57.0091 67.6564 56.719 67.5859 56.4246 67.5859C56.1302 67.5859 55.8401 67.6564 55.5785 67.7915C55.5363 67.8171 55.5058 67.8582 55.4934 67.906C55.481 67.9538 55.4877 68.0046 55.5122 68.0475C55.5244 68.0689 55.5408 68.0876 55.5604 68.1025C55.58 68.1175 55.6023 68.1284 55.6262 68.1345C55.65 68.1407 55.6749 68.1421 55.6993 68.1385C55.7236 68.135 55.747 68.1266 55.7681 68.1138C55.9754 68.0066 56.2054 67.9507 56.4388 67.9507C56.6722 67.9507 56.9022 68.0066 57.1096 68.1138C57.1303 68.1274 57.1539 68.1362 57.1785 68.1395C57.2031 68.1428 57.2282 68.1405 57.2518 68.1328Z" fill="#263238"/>
<path d="M53.2607 70.1046L53.9717 69.7586C53.9717 69.7586 53.6921 70.408 53.2607 70.1046Z" fill="#263238"/>
<path d="M60.3278 109.826L59.6452 142.83L38.3673 139.797C37.5141 122.539 40.5003 113.48 43.6951 109.826H60.3278Z" fill="#263238"/>
<path opacity="0.2" d="M54.7448 129.137L49.6777 123.041V118.23L54.7448 129.137Z" fill="black"/>
<path d="M43.767 88.164C43.1318 90.06 42.5204 92.0414 41.9421 93.98C41.3638 95.9187 40.8519 97.8952 40.4395 99.8434C40.2452 100.791 40.0556 101.787 39.9655 102.73V102.91V102.995C39.9655 103.024 39.9655 102.995 39.9655 102.995C39.955 103.062 39.9666 103.13 39.9987 103.19C40.1378 103.485 40.3307 103.752 40.5675 103.977C41.2087 104.615 41.9194 105.179 42.6863 105.659C43.5016 106.181 44.3974 106.683 45.2601 107.134L44.6534 109.03C43.5695 108.822 42.5055 108.523 41.4728 108.134C40.3693 107.733 39.3275 107.179 38.3776 106.489C37.804 106.061 37.3112 105.535 36.9224 104.934C36.6794 104.547 36.5046 104.12 36.4058 103.673C36.3525 103.426 36.3254 103.173 36.3252 102.92V102.635V102.422C36.3584 101.863 36.4058 101.303 36.4721 100.763C36.5385 100.223 36.6191 99.6822 36.6997 99.1466C37.0577 97.0434 37.5228 94.9598 38.0932 92.904C38.3618 91.8802 38.6573 90.8643 38.9796 89.8562C39.2972 88.8466 39.6148 87.8559 39.9892 86.8321L43.767 88.164Z" fill="#FF8B7B"/>
<path d="M56.0811 101.28L53.5215 99.3884L47.6582 108.162L40.9795 116.334L43.5438 118.23L49.4025 109.451L56.0811 101.28Z" fill="#FAFAFA"/>
<path d="M53.5166 99.3884C54.0941 100.328 55.0132 101.008 56.0809 101.284C55.5034 100.345 54.5844 99.6651 53.5166 99.3884Z" fill="#E6E6E6"/>
<path d="M40.9795 116.334C41.557 117.274 42.4761 117.953 43.5438 118.23C42.9663 117.29 42.0472 116.611 40.9795 116.334Z" fill="#E6E6E6"/>
<path d="M44.824 106.991L49.0473 107.271L46.2839 110.139C46.2839 110.139 43.857 109.485 43.4873 107.901L44.824 106.991Z" fill="#FF8B7B"/>
<path d="M50.4172 109.494L49.2274 111.172C49.1232 111.318 48.9689 111.42 48.7941 111.459C48.6193 111.499 48.4361 111.472 48.2794 111.385L45.6914 109.935L49.0568 107.276L50.3413 108.546C50.4643 108.669 50.5395 108.833 50.5533 109.006C50.5672 109.18 50.519 109.353 50.4172 109.494Z" fill="#FF8B7B"/>
<path d="M45.1077 87.3961C44.8091 85.5618 43.4392 84.481 41.6807 83.8838C39.0926 85.7561 37.827 91.9418 36.3956 99.1561C36.3583 99.365 36.3923 99.5804 36.492 99.7677C36.5917 99.9551 36.7513 100.104 36.9454 100.189C38.0783 100.663 39.0452 101.137 39.6946 101.441C39.8076 101.498 39.9312 101.531 40.0577 101.538C40.1841 101.545 40.3106 101.525 40.4291 101.481C40.5476 101.436 40.6556 101.367 40.7462 101.279C40.8368 101.19 40.908 101.084 40.9554 100.967L45.5817 89.4865L45.1077 87.3961Z" fill="#263238"/>
<path d="M64.0724 196.525C63.5917 196.175 63.0569 195.906 62.4893 195.729C62.4893 195.729 59.6832 194.141 58.2233 189.377L54.9811 188.567C54.9004 188.547 54.8164 188.544 54.7346 188.559C54.6528 188.573 54.5751 188.605 54.5066 188.652C54.438 188.699 54.3802 188.761 54.337 188.832C54.2938 188.903 54.2662 188.982 54.2559 189.064C54.2227 189.32 54.2038 189.614 54.1706 189.851C54.1398 190.367 54.1398 190.885 54.1706 191.401C54.199 193.008 54.3791 196.615 54.3791 196.615H54.7583C54.7583 195.517 54.8248 194.42 54.9574 193.33C55.1423 192.269 55.9054 193.525 56.313 194.724C56.7207 195.923 58.4223 197.208 60.8729 197.265C63.7406 197.35 64.9067 197.222 64.0724 196.525Z" fill="#263238"/>
</g>
<defs>
<clipPath id="clip0">
<rect width="237" height="237" fill="white" transform="translate(0.5)"/>
</clipPath>
</defs>
</svg>
